http://www.runnersworld.co.uk/events/viewevent.asp?sp=&v=1&EN=77132&ms=|
http://www.runnersworld.co.uk/events/viewevent.asp?sp=&v=1&EN=77170&ms=|
http://www.runnersworld.co.uk/events/viewevent.asp?sp=&v=1&EN=77451&ms=|
http://www.runnersworld.co.uk/events/viewevent.asp?sp=&v=1&EN=75635&ms=|
http://www.runnersworld.co.uk/events/viewevent.asp?sp=&v=1&EN=77724&ms=|
http://www.runnersworld.co.uk/events/viewevent.asp?sp=&v=1&EN=75550&ms=|
http://www.runnersworld.co.uk/events/viewevent.asp?sp=&v=1&EN=80132&ms=|
http://www.runnersworld.co.uk/events/viewevent.asp?sp=&v=1&EN=79328&ms=|
http://www.runnersworld.co.uk/events/viewevent.asp?sp=&v=1&EN=79894&ms=|
http://www.runnersworld.co.uk/events/viewevent.asp?sp=&v=1&EN=80601&ms=|
http://www.runnersworld.co.uk/events/viewevent.asp?sp=&v=1&EN=77915&ms=|
http://www.runnersworld.co.uk/events/viewevent.asp?sp=&v=1&EN=79853&ms=|
http://www.runnersworld.co.uk/events/viewevent.asp?sp=&v=1&EN=79561&ms=|
http://www.runnersworld.co.uk/events/viewevent.asp?sp=&v=1&EN=75616&ms=|
http://www.runnersworld.co.uk/events/viewevent.asp?sp=&v=1&EN=79344&ms=|
http://www.runnersworld.co.uk/events/viewevent.asp?sp=&v=1&EN=74907&ms=|
http://www.runnersworld.co.uk/events/viewevent.asp?sp=&v=1&EN=74909&ms=|
http://www.runnersworld.co.uk/events/viewevent.asp?sp=&v=1&EN=80425&ms=|
http://www.runnersworld.co.uk/events/viewevent.asp?sp=&v=1&EN=78989&ms=|
http://www.runnersworld.co.uk/events/viewevent.asp?sp=&v=1&EN=79797&ms=|
http://www.runnersworld.co.uk/events/viewevent.asp?sp=&v=1&EN=78007&ms=|
http://www.runnersworld.co.uk/events/viewevent.asp?sp=&v=1&EN=79579&ms=|
http://www.runnersworld.co.uk/events/viewevent.asp?sp=&v=1&EN=79929&ms=|
http://www.runnersworld.co.uk/events/viewevent.asp?sp=&v=1&EN=80866&ms=|
http://www.runnersworld.co.uk/events/viewevent.asp?sp=&v=1&EN=79799&ms=|
http://www.runnersworld.co.uk/events/viewevent.asp?sp=&v=1&EN=79222&ms=|
http://www.runnersworld.co.uk/events/viewevent.asp?sp=&v=1&EN=80596&ms=|
http://www.runnersworld.co.uk/events/viewevent.asp?sp=&v=1&EN=78270&ms=|
http://www.runnersworld.co.uk/events/viewevent.asp?sp=&v=1&EN=78992&ms=|
http://www.runnersworld.co.uk/events/viewevent.asp?sp=&v=1&EN=80559&ms=|
http://www.runnersworld.co.uk/events/viewevent.asp?sp=&v=1&EN=80008&ms=|
http://www.runnersworld.co.uk/events/viewevent.asp?sp=&v=1&EN=79590&ms=|
http://www.runnersworld.co.uk/events/viewevent.asp?sp=&v=1&EN=81248&ms=|
http://www.runnersworld.co.uk/events/viewevent.asp?sp=&v=1&EN=74986&ms=|
http://www.runnersworld.co.uk/events/viewevent.asp?sp=&v=1&EN=78727&ms=|
http://www.runnersworld.co.uk/events/viewevent.asp?sp=&v=1&EN=81153&ms=|
http://www.runnersworld.co.uk/events/viewevent.asp?sp=&v=1&EN=77273&ms=|
http://www.runnersworld.co.uk/events/viewevent.asp?sp=&v=1&EN=80175&ms=|
http://www.runnersworld.co.uk/events/viewevent.asp?sp=&v=1&EN=81463&ms=|
http://www.runnersworld.co.uk/events/viewevent.asp?sp=&v=1&EN=79898&ms=|
http://www.runnersworld.co.uk/events/viewevent.asp?sp=&v=1&EN=78964&ms=|
http://www.runnersworld.co.uk/events/viewevent.asp?sp=&v=1&EN=79553&ms=|
http://www.runnersworld.co.uk/events/viewevent.asp?sp=&v=1&EN=80853&ms=|
http://www.runnersworld.co.uk/events/viewevent.asp?sp=&v=1&EN=75359&ms=|
http://www.runnersworld.co.uk/events/viewevent.asp?sp=&v=1&EN=80358&ms=|
http://www.runnersworld.co.uk/events/viewevent.asp?sp=&v=1&EN=78196&ms=|
http://www.runnersworld.co.uk/events/viewevent.asp?sp=&v=1&EN=80613&ms=|
http://www.runnersworld.co.uk/events/viewevent.asp?sp=&v=1&EN=79687&ms=|
http://www.runnersworld.co.uk/events/viewevent.asp?sp=&v=1&EN=79022&ms=|
http://www.runnersworld.co.uk/events/viewevent.asp?sp=&v=1&EN=81206&ms=|
http://www.runnersworld.co.uk/events/viewevent.asp?sp=&v=1&EN=77727&ms=|
http://www.runnersworld.co.uk/events/viewevent.asp?sp=&v=1&EN=80856&ms=|
http://www.runnersworld.co.uk/events/viewevent.asp?sp=&v=1&EN=79161&ms=|
http://www.runnersworld.co.uk/events/viewevent.asp?sp=&v=1&EN=78797&ms=|
http://www.runnersworld.co.uk/events/viewevent.asp?sp=&v=1&EN=81228&ms=|
http://www.runnersworld.co.uk/events/viewevent.asp?sp=&v=1&EN=77500&ms=|
http://www.runnersworld.co.uk/events/viewevent.asp?sp=&v=1&EN=79213&ms=|
http://www.runnersworld.co.uk/events/viewevent.asp?sp=&v=1&EN=79308&ms=|
http://www.runnersworld.co.uk/events/viewevent.asp?sp=&v=1&EN=79571&ms=|
http://www.runnersworld.co.uk/events/viewevent.asp?sp=&v=1&EN=78766&ms=|
http://www.runnersworld.co.uk/events/viewevent.asp?sp=&v=1&EN=79670&ms=|
http://www.runnersworld.co.uk/events/viewevent.asp?sp=&v=1&EN=79198&ms=|
http://www.runnersworld.co.uk/events/viewevent.asp?sp=&v=1&EN=79312&ms=|
http://www.runnersworld.co.uk/events/viewevent.asp?sp=&v=1&EN=81200&ms=|
http://www.runnersworld.co.uk/events/viewevent.asp?sp=&v=1&EN=75469&ms=|
http://www.runnersworld.co.uk/events/viewevent.asp?sp=&v=1&EN=79138&ms=|
http://www.runnersworld.co.uk/events/viewevent.asp?sp=&v=1&EN=79370&ms=|
http://www.runnersworld.co.uk/events/viewevent.asp?sp=&v=1&EN=80943&ms=|
http://www.runnersworld.co.uk/events/viewevent.asp?sp=&v=1&EN=80447&ms=|
http://www.runnersworld.co.uk/events/viewevent.asp?sp=&v=1&EN=81120&ms=|
http://www.runnersworld.co.uk/events/viewevent.asp?sp=&v=1&EN=79743&ms=|
http://www.runnersworld.co.uk/events/viewevent.asp?sp=&v=1&EN=80137&ms=|
http://www.runnersworld.co.uk/events/viewevent.asp?sp=&v=1&EN=75706&ms=|
http://www.runnersworld.co.uk/events/viewevent.asp?sp=&v=1&EN=80597&ms=|
http://www.runnersworld.co.uk/events/viewevent.asp?sp=&v=1&EN=80167&ms=|
http://www.runnersworld.co.uk/events/viewevent.asp?sp=&v=1&EN=80417&ms=|
http://www.runnersworld.co.uk/events/viewevent.asp?sp=&v=1&EN=80283&ms=|
http://www.runnersworld.co.uk/events/viewevent.asp?sp=&v=1&EN=80736&ms=|
http://www.runnersworld.co.uk/events/viewevent.asp?sp=&v=1&EN=79706&ms=|
http://www.runnersworld.co.uk/events/viewevent.asp?sp=&v=1&EN=79424&ms=|
http://www.runnersworld.co.uk/events/viewevent.asp?sp=&v=1&EN=80989&ms=|
http://www.runnersworld.co.uk/events/viewevent.asp?sp=&v=1&EN=80557&ms=|
http://www.runnersworld.co.uk/events/viewevent.asp?sp=&v=1&EN=79510&ms=|
http://www.runnersworld.co.uk/events/viewevent.asp?sp=&v=1&EN=83177&ms=|
http://www.runnersworld.co.uk/events/viewevent.asp?sp=&v=1&EN=84307&ms=|
http://www.runnersworld.co.uk/events/viewevent.asp?sp=&v=1&EN=82610&ms=|
http://www.runnersworld.co.uk/events/viewevent.asp?sp=&v=1&EN=81648&ms=|
http://www.runnersworld.co.uk/events/viewevent.asp?sp=&v=1&EN=83372&ms=|
http://www.runnersworld.co.uk/events/viewevent.asp?sp=&v=1&EN=84427&ms=|
http://www.runnersworld.co.uk/events/viewevent.asp?sp=&v=1&EN=82347&ms=|
http://www.runnersworld.co.uk/events/viewevent.asp?sp=&v=1&EN=81420&ms=|
http://www.runnersworld.co.uk/events/viewevent.asp?sp=&v=1&EN=78098&ms=|
http://www.runnersworld.co.uk/events/viewevent.asp?sp=&v=1&EN=80088&ms=|
http://www.runnersworld.co.uk/events/viewevent.asp?sp=&v=1&EN=82264&ms=|
http://www.runnersworld.co.uk/events/viewevent.asp?sp=&v=1&EN=84301&ms=|
http://www.runnersworld.co.uk/events/viewevent.asp?sp=&v=1&EN=82988&ms=|
http://www.runnersworld.co.uk/events/viewevent.asp?sp=&v=1&EN=83363&ms=|
http://www.runnersworld.co.uk/events/viewevent.asp?sp=&v=1&EN=81629&ms=|
http://www.runnersworld.co.uk/events/viewevent.asp?sp=&v=1&EN=81901&ms=|
http://www.runnersworld.co.uk/events/viewevent.asp?sp=&v=1&EN=80930&ms=|
http://www.runnersworld.co.uk/events/viewevent.asp?sp=&v=1&EN=83618&ms=|
http://www.runnersworld.co.uk/events/viewevent.asp?sp=&v=1&EN=82021&ms=|
http://www.runnersworld.co.uk/events/viewevent.asp?sp=&v=1&EN=82825&ms=|
http://www.runnersworld.co.uk/events/viewevent.asp?sp=&v=1&EN=83028&ms=|
http://www.runnersworld.co.uk/events/viewevent.asp?sp=&v=1&EN=81136&ms=|
http://www.runnersworld.co.uk/events/viewevent.asp?sp=&v=1&EN=84191&ms=|
http://www.runnersworld.co.uk/events/viewevent.asp?sp=&v=1&EN=80435&ms=|
http://www.runnersworld.co.uk/events/viewevent.asp?sp=&v=1&EN=83641&ms=|
http://www.runnersworld.co.uk/events/viewevent.asp?sp=&v=1&EN=81715&ms=|
http://www.runnersworld.co.uk/events/viewevent.asp?sp=&v=1&EN=81580&ms=|
http://www.runnersworld.co.uk/events/viewevent.asp?sp=&v=1&EN=81582&ms=|
http://www.runnersworld.co.uk/events/viewevent.asp?sp=&v=1&EN=82187&ms=|
http://www.runnersworld.co.uk/events/viewevent.asp?sp=&v=1&EN=83233&ms=|
http://www.runnersworld.co.uk/events/viewevent.asp?sp=&v=1&EN=83234&ms=|
http://www.runnersworld.co.uk/events/viewevent.asp?sp=&v=1&EN=82661&ms=|
http://www.runnersworld.co.uk/events/viewevent.asp?sp=&v=1&EN=83111&ms=|
http://www.runnersworld.co.uk/events/viewevent.asp?sp=&v=1&EN=79390&ms=|
http://www.runnersworld.co.uk/events/viewevent.asp?sp=&v=1&EN=81802&ms=|
http://www.runnersworld.co.uk/events/viewevent.asp?sp=&v=1&EN=80058&ms=|
http://www.runnersworld.co.uk/events/viewevent.asp?sp=&v=1&EN=84003&ms=|
http://www.runnersworld.co.uk/events/viewevent.asp?sp=&v=1&EN=83644&ms=|
http://www.runnersworld.co.uk/events/viewevent.asp?sp=&v=1&EN=80704&ms=|
http://www.runnersworld.co.uk/events/viewevent.asp?sp=&v=1&EN=83714&ms=|
http://www.runnersworld.co.uk/events/viewevent.asp?sp=&v=1&EN=80555&ms=|
http://www.runnersworld.co.uk/events/viewevent.asp?sp=&v=1&EN=80165&ms=|
http://www.runnersworld.co.uk/events/viewevent.asp?sp=&v=1&EN=82854&ms=|
http://www.runnersworld.co.uk/events/viewevent.asp?sp=&v=1&EN=82820&ms=|
http://www.runnersworld.co.uk/events/viewevent.asp?sp=&v=1&EN=80580&ms=|
http://www.runnersworld.co.uk/events/viewevent.asp?sp=&v=1&EN=83411&ms=|
http://www.runnersworld.co.uk/events/viewevent.asp?sp=&v=1&EN=82869&ms=|
http://www.runnersworld.co.uk/events/viewevent.asp?sp=&v=1&EN=78723&ms=|
http://www.runnersworld.co.uk/events/viewevent.asp?sp=&v=1&EN=79644&ms=|
http://www.runnersworld.co.uk/events/viewevent.asp?sp=&v=1&EN=83399&ms=|
http://www.runnersworld.co.uk/events/viewevent.asp?sp=&v=1&EN=82198&ms=|
http://www.runnersworld.co.uk/events/viewevent.asp?sp=&v=1&EN=80890&ms=|
http://www.runnersworld.co.uk/events/viewevent.asp?sp=&v=1&EN=78871&ms=|
http://www.runnersworld.co.uk/events/viewevent.asp?sp=&v=1&EN=78868&ms=|
http://www.runnersworld.co.uk/events/viewevent.asp?sp=&v=1&EN=83027&ms=|
http://www.runnersworld.co.uk/events/viewevent.asp?sp=&v=1&EN=81264&ms=|
http://www.runnersworld.co.uk/events/viewevent.asp?sp=&v=1&EN=82471&ms=|
http://www.runnersworld.co.uk/events/viewevent.asp?sp=&v=1&EN=82686&ms=|
http://www.runnersworld.co.uk/events/viewevent.asp?sp=&v=1&EN=83586&ms=|
http://www.runnersworld.co.uk/events/viewevent.asp?sp=&v=1&EN=83602&ms=|
http://www.runnersworld.co.uk/events/viewevent.asp?sp=&v=1&EN=80742&ms=|
http://www.runnersworld.co.uk/events/viewevent.asp?sp=&v=1&EN=80745&ms=|
http://www.runnersworld.co.uk/events/viewevent.asp?sp=&v=1&EN=83055&ms=|
http://www.runnersworld.co.uk/events/viewevent.asp?sp=&v=1&EN=82531&ms=|
http://www.runnersworld.co.uk/events/viewevent.asp?sp=&v=1&EN=80583&ms=|
http://www.runnersworld.co.uk/events/viewevent.asp?sp=&v=1&EN=81562&ms=|
http://www.runnersworld.co.uk/events/viewevent.asp?sp=&v=1&EN=79497&ms=|
http://www.runnersworld.co.uk/events/viewevent.asp?sp=&v=1&EN=83003&ms=|
http://www.runnersworld.co.uk/events/viewevent.asp?sp=&v=1&EN=82540&ms=|
http://www.runnersworld.co.uk/events/viewevent.asp?sp=&v=1&EN=80452&ms=|
http://www.runnersworld.co.uk/events/viewevent.asp?sp=&v=1&EN=81042&ms=|
http://www.runnersworld.co.uk/events/viewevent.asp?sp=&v=1&EN=79513&ms=|
http://www.runnersworld.co.uk/events/viewevent.asp?sp=&v=1&EN=83216&ms=|
http://www.runnersworld.co.uk/events/viewevent.asp?sp=&v=1&EN=78331&ms=|
http://www.runnersworld.co.uk/events/viewevent.asp?sp=&v=1&EN=82934&ms=|
http://www.runnersworld.co.uk/events/viewevent.asp?sp=&v=1&EN=82933&ms=|
http://www.runnersworld.co.uk/events/viewevent.asp?sp=&v=1&EN=79451&ms=|
http://www.runnersworld.co.uk/events/viewevent.asp?sp=&v=1&EN=81190&ms=|
http://www.runnersworld.co.uk/events/viewevent.asp?sp=&v=1&EN=84578&ms=|
http://www.runnersworld.co.uk/events/viewevent.asp?sp=&v=1&EN=81464&ms=|
http://www.runnersworld.co.uk/events/viewevent.asp?sp=&v=1&EN=80391&ms=|
http://www.runnersworld.co.uk/events/viewevent.asp?sp=&v=1&EN=83299&ms=|
http://www.runnersworld.co.uk/events/viewevent.asp?sp=&v=1&EN=81622&ms=|
http://www.runnersworld.co.uk/events/viewevent.asp?sp=&v=1&EN=81592&ms=|
http://www.runnersworld.co.uk/events/viewevent.asp?sp=&v=1&EN=83756&ms=|
http://www.runnersworld.co.uk/events/viewevent.asp?sp=&v=1&EN=84755&ms=|
http://www.runnersworld.co.uk/events/viewevent.asp?sp=&v=1&EN=82406&ms=|
http://www.runnersworld.co.uk/events/viewevent.asp?sp=&v=1&EN=83912&ms=|
http://www.runnersworld.co.uk/events/viewevent.asp?sp=&v=1&EN=83101&ms=|
http://www.runnersworld.co.uk/events/viewevent.asp?sp=&v=1&EN=81847&ms=|
http://www.runnersworld.co.uk/events/viewevent.asp?sp=&v=1&EN=83334&ms=|
http://www.runnersworld.co.uk/events/viewevent.asp?sp=&v=1&EN=82447&ms=|
http://www.runnersworld.co.uk/events/viewevent.asp?sp=&v=1&EN=83579&ms=|
http://www.runnersworld.co.uk/events/viewevent.asp?sp=&v=1&EN=82718&ms=|
http://www.runnersworld.co.uk/events/viewevent.asp?sp=&v=1&EN=83805&ms=|
http://www.runnersworld.co.uk/events/viewevent.asp?sp=&v=1&EN=82325&ms=|
http://www.runnersworld.co.uk/events/viewevent.asp?sp=&v=1&EN=82784&ms=|
http://www.runnersworld.co.uk/events/viewevent.asp?sp=&v=1&EN=83659&ms=|
http://www.runnersworld.co.uk/events/viewevent.asp?sp=&v=1&EN=81410&ms=|
http://www.runnersworld.co.uk/events/viewevent.asp?sp=&v=1&EN=80413&ms=|
http://www.runnersworld.co.uk/events/viewevent.asp?sp=&v=1&EN=83995&ms=|
http://www.runnersworld.co.uk/events/viewevent.asp?sp=&v=1&EN=84698&ms=|
http://www.runnersworld.co.uk/events/viewevent.asp?sp=&v=1&EN=80189&ms=|
http://www.runnersworld.co.uk/events/viewevent.asp?sp=&v=1&EN=78758&ms=|
http://www.runnersworld.co.uk/events/viewevent.asp?sp=&v=1&EN=80286&ms=|
http://www.runnersworld.co.uk/events/viewevent.asp?sp=&v=1&EN=83393&ms=|
http://www.runnersworld.co.uk/events/viewevent.asp?sp=&v=1&EN=82430&ms=|
http://www.runnersworld.co.uk/events/viewevent.asp?sp=&v=1&EN=82429&ms=|
http://www.runnersworld.co.uk/events/viewevent.asp?sp=&v=1&EN=82714&ms=|
http://www.runnersworld.co.uk/events/viewevent.asp?sp=&v=1&EN=84021&ms=|
http://www.runnersworld.co.uk/events/viewevent.asp?sp=&v=1&EN=80577&ms=|
http://www.runnersworld.co.uk/events/viewevent.asp?sp=&v=1&EN=84002&ms=|
http://www.runnersworld.co.uk/events/viewevent.asp?sp=&v=1&EN=81544&ms=|
http://www.runnersworld.co.uk/events/viewevent.asp?sp=&v=1&EN=81469&ms=|
http://www.runnersworld.co.uk/events/viewevent.asp?sp=&v=1&EN=81152&ms=|
http://www.runnersworld.co.uk/events/viewevent.asp?sp=&v=1&EN=81151&ms=|
http://www.runnersworld.co.uk/events/viewevent.asp?sp=&v=1&EN=81595&ms=|
http://www.runnersworld.co.uk/events/viewevent.asp?sp=&v=1&EN=83181&ms=|
http://www.runnersworld.co.uk/events/viewevent.asp?sp=&v=1&EN=82444&ms=|
http://www.runnersworld.co.uk/events/viewevent.asp?sp=&v=1&EN=83161&ms=|
http://www.runnersworld.co.uk/events/viewevent.asp?sp=&v=1&EN=80630&ms=|
http://www.runnersworld.co.uk/events/viewevent.asp?sp=&v=1&EN=78247&ms=|
http://www.runnersworld.co.uk/events/viewevent.asp?sp=&v=1&EN=82376&ms=|
http://www.runnersworld.co.uk/events/viewevent.asp?sp=&v=1&EN=83182&ms=|
http://www.runnersworld.co.uk/events/viewevent.asp?sp=&v=1&EN=81900&ms=|
http://www.runnersworld.co.uk/events/viewevent.asp?sp=&v=1&EN=82159&ms=|
http://www.runnersworld.co.uk/events/viewevent.asp?sp=&v=1&EN=80218&ms=|
http://www.runnersworld.co.uk/events/viewevent.asp?sp=&v=1&EN=82519&ms=|
http://www.runnersworld.co.uk/events/viewevent.asp?sp=&v=1&EN=82365&ms=|
http://www.runnersworld.co.uk/events/viewevent.asp?sp=&v=1&EN=82487&ms=|
http://www.runnersworld.co.uk/events/viewevent.asp?sp=&v=1&EN=81325&ms=|
http://www.runnersworld.co.uk/events/viewevent.asp?sp=&v=1&EN=83321&ms=|
http://www.runnersworld.co.uk/events/viewevent.asp?sp=&v=1&EN=80179&ms=|
http://www.runnersworld.co.uk/events/viewevent.asp?sp=&v=1&EN=80715&ms=|
http://www.runnersworld.co.uk/events/viewevent.asp?sp=&v=1&EN=81048&ms=|
http://www.runnersworld.co.uk/events/viewevent.asp?sp=&v=1&EN=82292&ms=|
http://www.runnersworld.co.uk/events/viewevent.asp?sp=&v=1&EN=82223&ms=|
http://www.runnersworld.co.uk/events/viewevent.asp?sp=&v=1&EN=81015&ms=|
http://www.runnersworld.co.uk/events/viewevent.asp?sp=&v=1&EN=79556&ms=|
http://www.runnersworld.co.uk/events/viewevent.asp?sp=&v=1&EN=83597&ms=|
http://www.runnersworld.co.uk/events/viewevent.asp?sp=&v=1&EN=84413&ms=|
http://www.runnersworld.co.uk/events/viewevent.asp?sp=&v=1&EN=83115&ms=|
http://www.runnersworld.co.uk/events/viewevent.asp?sp=&v=1&EN=81741&ms=|
http://www.runnersworld.co.uk/events/viewevent.asp?sp=&v=1&EN=79855&ms=|
http://www.runnersworld.co.uk/events/viewevent.asp?sp=&v=1&EN=84333&ms=|
http://www.runnersworld.co.uk/events/viewevent.asp?sp=&v=1&EN=82603&ms=|
http://www.runnersworld.co.uk/events/viewevent.asp?sp=&v=1&EN=83491&ms=|
http://www.runnersworld.co.uk/events/viewevent.asp?sp=&v=1&EN=81026&ms=|
http://www.runnersworld.co.uk/events/viewevent.asp?sp=&v=1&EN=80192&ms=|
http://www.runnersworld.co.uk/events/viewevent.asp?sp=&v=1&EN=82575&ms=|
http://www.runnersworld.co.uk/events/viewevent.asp?sp=&v=1&EN=82666&ms=|
http://www.runnersworld.co.uk/events/viewevent.asp?sp=&v=1&EN=82891&ms=|
http://www.runnersworld.co.uk/events/viewevent.asp?sp=&v=1&EN=81241&ms=|
http://www.runnersworld.co.uk/events/viewevent.asp?sp=&v=1&EN=82574&ms=|
http://www.runnersworld.co.uk/events/viewevent.asp?sp=&v=1&EN=80274&ms=|
http://www.runnersworld.co.uk/events/viewevent.asp?sp=&v=1&EN=81234&ms=|
http://www.runnersworld.co.uk/events/viewevent.asp?sp=&v=1&EN=82405&ms=|
http://www.runnersworld.co.uk/events/viewevent.asp?sp=&v=1&EN=83190&ms=|
http://www.runnersworld.co.uk/events/viewevent.asp?sp=&v=1&EN=78854&ms=|
http://www.runnersworld.co.uk/events/viewevent.asp?sp=&v=1&EN=81230&ms=|
http://www.runnersworld.co.uk/events/viewevent.asp?sp=&v=1&EN=84593&ms=|
http://www.runnersworld.co.uk/events/viewevent.asp?sp=&v=1&EN=83261&ms=|
http://www.runnersworld.co.uk/events/viewevent.asp?sp=&v=1&EN=80262&ms=|
http://www.runnersworld.co.uk/events/viewevent.asp?sp=&v=1&EN=80279&ms=|
http://www.runnersworld.co.uk/events/viewevent.asp?sp=&v=1&EN=82843&ms=|
http://www.runnersworld.co.uk/events/viewevent.asp?sp=&v=1&EN=78330&ms=|
http://www.runnersworld.co.uk/events/viewevent.asp?sp=&v=1&EN=84210&ms=|
http://www.runnersworld.co.uk/events/viewevent.asp?sp=&v=1&EN=81814&ms=|
http://www.runnersworld.co.uk/events/viewevent.asp?sp=&v=1&EN=84652&ms=|
http://www.runnersworld.co.uk/events/viewevent.asp?sp=&v=1&EN=84547&ms=|
http://www.runnersworld.co.uk/events/viewevent.asp?sp=&v=1&EN=83183&ms=|
http://www.runnersworld.co.uk/events/viewevent.asp?sp=&v=1&EN=81910&ms=|
http://www.runnersworld.co.uk/events/viewevent.asp?sp=&v=1&EN=83184&ms=|
http://www.runnersworld.co.uk/events/viewevent.asp?sp=&v=1&EN=82155&ms=|
http://www.runnersworld.co.uk/events/viewevent.asp?sp=&v=1&EN=83148&ms=|
http://www.runnersworld.co.uk/events/viewevent.asp?sp=&v=1&EN=83895&ms=|
http://www.runnersworld.co.uk/events/viewevent.asp?sp=&v=1&EN=81599&ms=|
http://www.runnersworld.co.uk/events/viewevent.asp?sp=&v=1&EN=81362&ms=|
http://www.runnersworld.co.uk/events/viewevent.asp?sp=&v=1&EN=83186&ms=|
http://www.runnersworld.co.uk/events/viewevent.asp?sp=&v=1&EN=81855&ms=|
http://www.runnersworld.co.uk/events/viewevent.asp?sp=&v=1&EN=82113&ms=|
http://www.runnersworld.co.uk/events/viewevent.asp?sp=&v=1&EN=83879&ms=|
http://www.runnersworld.co.uk/events/viewevent.asp?sp=&v=1&EN=78629&ms=|
http://www.runnersworld.co.uk/events/viewevent.asp?sp=&v=1&EN=80191&ms=|
http://www.runnersworld.co.uk/events/viewevent.asp?sp=&v=1&EN=81804&ms=|
http://www.runnersworld.co.uk/events/viewevent.asp?sp=&v=1&EN=80043&ms=|
http://www.runnersworld.co.uk/events/viewevent.asp?sp=&v=1&EN=84487&ms=|
http://www.runnersworld.co.uk/events/viewevent.asp?sp=&v=1&EN=83198&ms=|
http://www.runnersworld.co.uk/events/viewevent.asp?sp=&v=1&EN=82834&ms=|
http://www.runnersworld.co.uk/events/viewevent.asp?sp=&v=1&EN=83671&ms=|
http://www.runnersworld.co.uk/events/viewevent.asp?sp=&v=1&EN=83042&ms=|
http://www.runnersworld.co.uk/events/viewevent.asp?sp=&v=1&EN=82887&ms=|
http://www.runnersworld.co.uk/events/viewevent.asp?sp=&v=1&EN=80656&ms=|
http://www.runnersworld.co.uk/events/viewevent.asp?sp=&v=1&EN=81659&ms=|
http://www.runnersworld.co.uk/events/viewevent.asp?sp=&v=1&EN=82370&ms=|
http://www.runnersworld.co.uk/events/viewevent.asp?sp=&v=1&EN=82368&ms=|
http://www.runnersworld.co.uk/events/viewevent.asp?sp=&v=1&EN=83816&ms=|
http://www.runnersworld.co.uk/events/viewevent.asp?sp=&v=1&EN=83817&ms=|
http://www.runnersworld.co.uk/events/viewevent.asp?sp=&v=1&EN=82528&ms=|
http://www.runnersworld.co.uk/events/viewevent.asp?sp=&v=1&EN=81224&ms=|
http://www.runnersworld.co.uk/events/viewevent.asp?sp=&v=1&EN=81334&ms=|
http://www.runnersworld.co.uk/events/viewevent.asp?sp=&v=1&EN=82965&ms=|
http://www.runnersworld.co.uk/events/viewevent.asp?sp=&v=1&EN=81220&ms=|
http://www.runnersworld.co.uk/events/viewevent.asp?sp=&v=1&EN=83227&ms=|
http://www.runnersworld.co.uk/events/viewevent.asp?sp=&v=1&EN=84351&ms=|
http://www.runnersworld.co.uk/events/viewevent.asp?sp=&v=1&EN=83117&ms=|
http://www.runnersworld.co.uk/events/viewevent.asp?sp=&v=1&EN=79226&ms=|
http://www.runnersworld.co.uk/events/viewevent.asp?sp=&v=1&EN=82372&ms=|
http://www.runnersworld.co.uk/events/viewevent.asp?sp=&v=1&EN=81546&ms=|
http://www.runnersworld.co.uk/events/viewevent.asp?sp=&v=1&EN=82338&ms=|
http://www.runnersworld.co.uk/events/viewevent.asp?sp=&v=1&EN=81656&ms=|
http://www.runnersworld.co.uk/events/viewevent.asp?sp=&v=1&EN=84041&ms=|
http://www.runnersworld.co.uk/events/viewevent.asp?sp=&v=1&EN=83164&ms=|
http://www.runnersworld.co.uk/events/viewevent.asp?sp=&v=1&EN=82920&ms=|
http://www.runnersworld.co.uk/events/viewevent.asp?sp=&v=1&EN=81534&ms=|
http://www.runnersworld.co.uk/events/viewevent.asp?sp=&v=1&EN=82649&ms=|
http://www.runnersworld.co.uk/events/viewevent.asp?sp=&v=1&EN=84629&ms=|
http://www.runnersworld.co.uk/events/viewevent.asp?sp=&v=1&EN=84286&ms=|
http://www.runnersworld.co.uk/events/viewevent.asp?sp=&v=1&EN=80647&ms=|
http://www.runnersworld.co.uk/events/viewevent.asp?sp=&v=1&EN=79340&ms=|
http://www.runnersworld.co.uk/events/viewevent.asp?sp=&v=1&EN=80646&ms=|
http://www.runnersworld.co.uk/events/viewevent.asp?sp=&v=1&EN=79681&ms=|
http://www.runnersworld.co.uk/events/viewevent.asp?sp=&v=1&EN=79878&ms=|
http://www.runnersworld.co.uk/events/viewevent.asp?sp=&v=1&EN=80867&ms=|
http://www.runnersworld.co.uk/events/viewevent.asp?sp=&v=1&EN=80774&ms=|
http://www.runnersworld.co.uk/events/viewevent.asp?sp=&v=1&EN=80542&ms=|
http://www.runnersworld.co.uk/events/viewevent.asp?sp=&v=1&EN=80706&ms=|
http://www.runnersworld.co.uk/events/viewevent.asp?sp=&v=1&EN=80244&ms=|
http://www.runnersworld.co.uk/events/viewevent.asp?sp=&v=1&EN=82048&ms=|
http://www.runnersworld.co.uk/events/viewevent.asp?sp=&v=1&EN=82032&ms=|
http://www.runnersworld.co.uk/events/viewevent.asp?sp=&v=1&EN=83199&ms=|
http://www.runnersworld.co.uk/events/viewevent.asp?sp=&v=1&EN=81450&ms=|
http://www.runnersworld.co.uk/events/viewevent.asp?sp=&v=1&EN=80330&ms=|
http://www.runnersworld.co.uk/events/viewevent.asp?sp=&v=1&EN=80307&ms=|
http://www.runnersworld.co.uk/events/viewevent.asp?sp=&v=1&EN=83918&ms=|
http://www.runnersworld.co.uk/events/viewevent.asp?sp=&v=1&EN=82040&ms=|
http://www.runnersworld.co.uk/events/viewevent.asp?sp=&v=1&EN=82373&ms=|
http://www.runnersworld.co.uk/events/viewevent.asp?sp=&v=1&EN=80079&ms=|
http://www.runnersworld.co.uk/events/viewevent.asp?sp=&v=1&EN=83962&ms=|
http://www.runnersworld.co.uk/events/viewevent.asp?sp=&v=1&EN=78498&ms=|
http://www.runnersworld.co.uk/events/viewevent.asp?sp=&v=1&EN=81828&ms=|
http://www.runnersworld.co.uk/events/viewevent.asp?sp=&v=1&EN=83876&ms=|
http://www.runnersworld.co.uk/events/viewevent.asp?sp=&v=1&EN=79959&ms=|
http://www.runnersworld.co.uk/events/viewevent.asp?sp=&v=1&EN=79779&ms=|
http://www.runnersworld.co.uk/events/viewevent.asp?sp=&v=1&EN=82073&ms=|
http://www.runnersworld.co.uk/events/viewevent.asp?sp=&v=1&EN=81499&ms=|
http://www.runnersworld.co.uk/events/viewevent.asp?sp=&v=1&EN=81447&ms=|
http://www.runnersworld.co.uk/events/viewevent.asp?sp=&v=1&EN=81218&ms=|
http://www.runnersworld.co.uk/events/viewevent.asp?sp=&v=1&EN=81154&ms=|
http://www.runnersworld.co.uk/events/viewevent.asp?sp=&v=1&EN=81195&ms=|
http://www.runnersworld.co.uk/events/viewevent.asp?sp=&v=1&EN=84633&ms=|
http://www.runnersworld.co.uk/events/viewevent.asp?sp=&v=1&EN=83492&ms=|
http://www.runnersworld.co.uk/events/viewevent.asp?sp=&v=1&EN=79599&ms=|
http://www.runnersworld.co.uk/events/viewevent.asp?sp=&v=1&EN=81890&ms=|
http://www.runnersworld.co.uk/events/viewevent.asp?sp=&v=1&EN=80563&ms=|
http://www.runnersworld.co.uk/events/viewevent.asp?sp=&v=1&EN=83559&ms=|
http://www.runnersworld.co.uk/events/viewevent.asp?sp=&v=1&EN=84458&ms=|
http://www.runnersworld.co.uk/events/viewevent.asp?sp=&v=1&EN=82493&ms=|
http://www.runnersworld.co.uk/events/viewevent.asp?sp=&v=1&EN=81100&ms=|
http://www.runnersworld.co.uk/events/viewevent.asp?sp=&v=1&EN=82802&ms=|
http://www.runnersworld.co.uk/events/viewevent.asp?sp=&v=1&EN=81203&ms=|
http://www.runnersworld.co.uk/events/viewevent.asp?sp=&v=1&EN=84544&ms=|
http://www.runnersworld.co.uk/events/viewevent.asp?sp=&v=1&EN=83630&ms=|
http://www.runnersworld.co.uk/events/viewevent.asp?sp=&v=1&EN=80674&ms=|
http://www.runnersworld.co.uk/events/viewevent.asp?sp=&v=1&EN=80673&ms=|
http://www.runnersworld.co.uk/events/viewevent.asp?sp=&v=1&EN=80672&ms=|
http://www.runnersworld.co.uk/events/viewevent.asp?sp=&v=1&EN=83572&ms=|
http://www.runnersworld.co.uk/events/viewevent.asp?sp=&v=1&EN=81166&ms=|
http://www.runnersworld.co.uk/events/viewevent.asp?sp=&v=1&EN=81660&ms=|
http://www.runnersworld.co.uk/events/viewevent.asp?sp=&v=1&EN=79341&ms=|
http://www.runnersworld.co.uk/events/viewevent.asp?sp=&v=1&EN=83294&ms=|
http://www.runnersworld.co.uk/events/viewevent.asp?sp=&v=1&EN=79879&ms=|
http://www.runnersworld.co.uk/events/viewevent.asp?sp=&v=1&EN=82865&ms=|
http://www.runnersworld.co.uk/events/viewevent.asp?sp=&v=1&EN=82866&ms=|
http://www.runnersworld.co.uk/events/viewevent.asp?sp=&v=1&EN=76800&ms=|
http://www.runnersworld.co.uk/events/viewevent.asp?sp=&v=1&EN=81601&ms=|
http://www.runnersworld.co.uk/events/viewevent.asp?sp=&v=1&EN=82623&ms=|
http://www.runnersworld.co.uk/events/viewevent.asp?sp=&v=1&EN=84078&ms=|
http://www.runnersworld.co.uk/events/viewevent.asp?sp=&v=1&EN=81805&ms=|
http://www.runnersworld.co.uk/events/viewevent.asp?sp=&v=1&EN=82656&ms=|
http://www.runnersworld.co.uk/events/viewevent.asp?sp=&v=1&EN=82925&ms=|
http://www.runnersworld.co.uk/events/viewevent.asp?sp=&v=1&EN=84583&ms=|
http://www.runnersworld.co.uk/events/viewevent.asp?sp=&v=1&EN=83121&ms=|
http://www.runnersworld.co.uk/events/viewevent.asp?sp=&v=1&EN=82792&ms=|
http://www.runnersworld.co.uk/events/viewevent.asp?sp=&v=1&EN=83268&ms=|
http://www.runnersworld.co.uk/events/viewevent.asp?sp=&v=1&EN=83806&ms=|
http://www.runnersworld.co.uk/events/viewevent.asp?sp=&v=1&EN=84308&ms=|
http://www.runnersworld.co.uk/events/viewevent.asp?sp=&v=1&EN=82299&ms=|
http://www.runnersworld.co.uk/events/viewevent.asp?sp=&v=1&EN=83906&ms=|
http://www.runnersworld.co.uk/events/viewevent.asp?sp=&v=1&EN=82740&ms=|
http://www.runnersworld.co.uk/events/viewevent.asp?sp=&v=1&EN=82712&ms=|
http://www.runnersworld.co.uk/events/viewevent.asp?sp=&v=1&EN=82512&ms=|
http://www.runnersworld.co.uk/events/viewevent.asp?sp=&v=1&EN=79974&ms=|
http://www.runnersworld.co.uk/events/viewevent.asp?sp=&v=1&EN=83179&ms=|
http://www.runnersworld.co.uk/events/viewevent.asp?sp=&v=1&EN=82222&ms=|
http://www.runnersworld.co.uk/events/viewevent.asp?sp=&v=1&EN=81693&ms=|
http://www.runnersworld.co.uk/events/viewevent.asp?sp=&v=1&EN=83066&ms=|
http://www.runnersworld.co.uk/events/viewevent.asp?sp=&v=1&EN=81941&ms=|
http://www.runnersworld.co.uk/events/viewevent.asp?sp=&v=1&EN=82108&ms=|
http://www.runnersworld.co.uk/events/viewevent.asp?sp=&v=1&EN=84147&ms=|
http://www.runnersworld.co.uk/events/viewevent.asp?sp=&v=1&EN=79996&ms=|
http://www.runnersworld.co.uk/events/viewevent.asp?sp=&v=1&EN=84323&ms=|
http://www.runnersworld.co.uk/events/viewevent.asp?sp=&v=1&EN=82123&ms=|
http://www.runnersworld.co.uk/events/viewevent.asp?sp=&v=1&EN=81479&ms=|
http://www.runnersworld.co.uk/events/viewevent.asp?sp=&v=1&EN=83750&ms=|
http://www.runnersworld.co.uk/events/viewevent.asp?sp=&v=1&EN=83958&ms=|
http://www.runnersworld.co.uk/events/viewevent.asp?sp=&v=1&EN=80822&ms=|
http://www.runnersworld.co.uk/events/viewevent.asp?sp=&v=1&EN=83017&ms=|
http://www.runnersworld.co.uk/events/viewevent.asp?sp=&v=1&EN=84558&ms=|
http://www.runnersworld.co.uk/events/viewevent.asp?sp=&v=1&EN=81343&ms=|