http://www.runnersworld.co.uk/events/viewevent.asp?sp=&v=1&EN=77132&ms=,
http://www.runnersworld.co.uk/events/viewevent.asp?sp=&v=1&EN=77170&ms=,
http://www.runnersworld.co.uk/events/viewevent.asp?sp=&v=1&EN=77451&ms=,
http://www.runnersworld.co.uk/events/viewevent.asp?sp=&v=1&EN=75635&ms=,
http://www.runnersworld.co.uk/events/viewevent.asp?sp=&v=1&EN=77724&ms=,
