http://www.runnersworld.co.uk/events/viewevent.asp?sp=&v=1&EN=81898&ms=,
http://www.runnersworld.co.uk/events/viewevent.asp?sp=&v=1&EN=78752&ms=,
http://www.runnersworld.co.uk/events/viewevent.asp?sp=&v=1&EN=78216&ms=,
http://www.runnersworld.co.uk/events/viewevent.asp?sp=&v=1&EN=78215&ms=,
http://www.runnersworld.co.uk/events/viewevent.asp?sp=&v=1&EN=77502&ms=,
http://www.runnersworld.co.uk/events/viewevent.asp?sp=&v=1&EN=81547&ms=,
http://www.runnersworld.co.uk/events/viewevent.asp?sp=&v=1&EN=81575&ms=,
http://www.runnersworld.co.uk/events/viewevent.asp?sp=&v=1&EN=81102&ms=,
http://www.runnersworld.co.uk/events/viewevent.asp?sp=&v=1&EN=78074&ms=,
http://www.runnersworld.co.uk/events/viewevent.asp?sp=&v=1&EN=79472&ms=,
http://www.runnersworld.co.uk/events/viewevent.asp?sp=&v=1&EN=79667&ms=,
http://www.runnersworld.co.uk/events/viewevent.asp?sp=&v=1&EN=78949&ms=,
http://www.runnersworld.co.uk/events/viewevent.asp?sp=&v=1&EN=80600&ms=,
http://www.runnersworld.co.uk/events/viewevent.asp?sp=&v=1&EN=79953&ms=,
http://www.runnersworld.co.uk/events/viewevent.asp?sp=&v=1&EN=79255&ms=,
http://www.runnersworld.co.uk/events/viewevent.asp?sp=&v=1&EN=82134&ms=,
http://www.runnersworld.co.uk/events/viewevent.asp?sp=&v=1&EN=81452&ms=,
http://www.runnersworld.co.uk/events/viewevent.asp?sp=&v=1&EN=80024&ms=,
http://www.runnersworld.co.uk/events/viewevent.asp?sp=&v=1&EN=79058&ms=,
http://www.runnersworld.co.uk/events/viewevent.asp?sp=&v=1&EN=80103&ms=,
http://www.runnersworld.co.uk/events/viewevent.asp?sp=&v=1&EN=79527&ms=,
http://www.runnersworld.co.uk/events/viewevent.asp?sp=&v=1&EN=74823&ms=,
http://www.runnersworld.co.uk/events/viewevent.asp?sp=&v=1&EN=80376&ms=,
http://www.runnersworld.co.uk/events/viewevent.asp?sp=&v=1&EN=79628&ms=,
http://www.runnersworld.co.uk/events/viewevent.asp?sp=&v=1&EN=80239&ms=,
http://www.runnersworld.co.uk/events/viewevent.asp?sp=&v=1&EN=81775&ms=,
http://www.runnersworld.co.uk/events/viewevent.asp?sp=&v=1&EN=80661&ms=,
http://www.runnersworld.co.uk/events/viewevent.asp?sp=&v=1&EN=81605&ms=,
http://www.runnersworld.co.uk/events/viewevent.asp?sp=&v=1&EN=80183&ms=,
http://www.runnersworld.co.uk/events/viewevent.asp?sp=&v=1&EN=81821&ms=,
http://www.runnersworld.co.uk/events/viewevent.asp?sp=&v=1&EN=80420&ms=,
http://www.runnersworld.co.uk/events/viewevent.asp?sp=&v=1&EN=81121&ms=,
http://www.runnersworld.co.uk/events/viewevent.asp?sp=&v=1&EN=78737&ms=,
http://www.runnersworld.co.uk/events/viewevent.asp?sp=&v=1&EN=82071&ms=,
http://www.runnersworld.co.uk/events/viewevent.asp?sp=&v=1&EN=80406&ms=,
http://www.runnersworld.co.uk/events/viewevent.asp?sp=&v=1&EN=78273&ms=,
http://www.runnersworld.co.uk/events/viewevent.asp?sp=&v=1&EN=81570&ms=,
http://www.runnersworld.co.uk/events/viewevent.asp?sp=&v=1&EN=80958&ms=,
http://www.runnersworld.co.uk/events/viewevent.asp?sp=&v=1&EN=81569&ms=,
http://www.runnersworld.co.uk/events/viewevent.asp?sp=&v=1&EN=81647&ms=,
http://www.runnersworld.co.uk/events/viewevent.asp?sp=&v=1&EN=79664&ms=,
http://www.runnersworld.co.uk/events/viewevent.asp?sp=&v=1&EN=77796&ms=,
http://www.runnersworld.co.uk/events/viewevent.asp?sp=&v=1&EN=76935&ms=,
http://www.runnersworld.co.uk/events/viewevent.asp?sp=&v=1&EN=81670&ms=,
http://www.runnersworld.co.uk/events/viewevent.asp?sp=&v=1&EN=81638&ms=,
http://www.runnersworld.co.uk/events/viewevent.asp?sp=&v=1&EN=82068&ms=,
http://www.runnersworld.co.uk/events/viewevent.asp?sp=&v=1&EN=79719&ms=,
http://www.runnersworld.co.uk/events/viewevent.asp?sp=&v=1&EN=80445&ms=,
http://www.runnersworld.co.uk/events/viewevent.asp?sp=&v=1&EN=79858&ms=,
http://www.runnersworld.co.uk/events/viewevent.asp?sp=&v=1&EN=78669&ms=,
http://www.runnersworld.co.uk/events/viewevent.asp?sp=&v=1&EN=79474&ms=,
http://www.runnersworld.co.uk/events/viewevent.asp?sp=&v=1&EN=79476&ms=,
http://www.runnersworld.co.uk/events/viewevent.asp?sp=&v=1&EN=82861&ms=,
http://www.runnersworld.co.uk/events/viewevent.asp?sp=&v=1&EN=82857&ms=,
http://www.runnersworld.co.uk/events/viewevent.asp?sp=&v=1&EN=82856&ms=,
http://www.runnersworld.co.uk/events/viewevent.asp?sp=&v=1&EN=78063&ms=,
http://www.runnersworld.co.uk/events/viewevent.asp?sp=&v=1&EN=76782&ms=,
http://www.runnersworld.co.uk/events/viewevent.asp?sp=&v=1&EN=82755&ms=,
http://www.runnersworld.co.uk/events/viewevent.asp?sp=&v=1&EN=81134&ms=,
http://www.runnersworld.co.uk/events/viewevent.asp?sp=&v=1&EN=78729&ms=,
http://www.runnersworld.co.uk/events/viewevent.asp?sp=&v=1&EN=79399&ms=,
http://www.runnersworld.co.uk/events/viewevent.asp?sp=&v=1&EN=81001&ms=,
http://www.runnersworld.co.uk/events/viewevent.asp?sp=&v=1&EN=80342&ms=,
http://www.runnersworld.co.uk/events/viewevent.asp?sp=&v=1&EN=80384&ms=,
http://www.runnersworld.co.uk/events/viewevent.asp?sp=&v=1&EN=80382&ms=,
http://www.runnersworld.co.uk/events/viewevent.asp?sp=&v=1&EN=81654&ms=,
http://www.runnersworld.co.uk/events/viewevent.asp?sp=&v=1&EN=78248&ms=,
http://www.runnersworld.co.uk/events/viewevent.asp?sp=&v=1&EN=79907&ms=,
http://www.runnersworld.co.uk/events/viewevent.asp?sp=&v=1&EN=80154&ms=,
http://www.runnersworld.co.uk/events/viewevent.asp?sp=&v=1&EN=80273&ms=,
http://www.runnersworld.co.uk/events/viewevent.asp?sp=&v=1&EN=79709&ms=,
http://www.runnersworld.co.uk/events/viewevent.asp?sp=&v=1&EN=79712&ms=,
http://www.runnersworld.co.uk/events/viewevent.asp?sp=&v=1&EN=76785&ms=,
http://www.runnersworld.co.uk/events/viewevent.asp?sp=&v=1&EN=80990&ms=,
http://www.runnersworld.co.uk/events/viewevent.asp?sp=&v=1&EN=82080&ms=,
http://www.runnersworld.co.uk/events/viewevent.asp?sp=&v=1&EN=80789&ms=,
http://www.runnersworld.co.uk/events/viewevent.asp?sp=&v=1&EN=79595&ms=,
http://www.runnersworld.co.uk/events/viewevent.asp?sp=&v=1&EN=79594&ms=,
http://www.runnersworld.co.uk/events/viewevent.asp?sp=&v=1&EN=80993&ms=,
http://www.runnersworld.co.uk/events/viewevent.asp?sp=&v=1&EN=80766&ms=,
http://www.runnersworld.co.uk/events/viewevent.asp?sp=&v=1&EN=78326&ms=,
http://www.runnersworld.co.uk/events/viewevent.asp?sp=&v=1&EN=82467&ms=,
http://www.runnersworld.co.uk/events/viewevent.asp?sp=&v=1&EN=81060&ms=,
http://www.runnersworld.co.uk/events/viewevent.asp?sp=&v=1&EN=78573&ms=,
http://www.runnersworld.co.uk/events/viewevent.asp?sp=&v=1&EN=80670&ms=,
http://www.runnersworld.co.uk/events/viewevent.asp?sp=&v=1&EN=80793&ms=,
http://www.runnersworld.co.uk/events/viewevent.asp?sp=&v=1&EN=83106&ms=,
http://www.runnersworld.co.uk/events/viewevent.asp?sp=&v=1&EN=80207&ms=,
http://www.runnersworld.co.uk/events/viewevent.asp?sp=&v=1&EN=78621&ms=,
http://www.runnersworld.co.uk/events/viewevent.asp?sp=&v=1&EN=78846&ms=,
http://www.runnersworld.co.uk/events/viewevent.asp?sp=&v=1&EN=81714&ms=,
http://www.runnersworld.co.uk/events/viewevent.asp?sp=&v=1&EN=79932&ms=,
http://www.runnersworld.co.uk/events/viewevent.asp?sp=&v=1&EN=76575&ms=,
http://www.runnersworld.co.uk/events/viewevent.asp?sp=&v=1&EN=81967&ms=,
http://www.runnersworld.co.uk/events/viewevent.asp?sp=&v=1&EN=81589&ms=,
http://www.runnersworld.co.uk/events/viewevent.asp?sp=&v=1&EN=82011&ms=,
http://www.runnersworld.co.uk/events/viewevent.asp?sp=&v=1&EN=81170&ms=,
http://www.runnersworld.co.uk/events/viewevent.asp?sp=&v=1&EN=81587&ms=,
http://www.runnersworld.co.uk/events/viewevent.asp?sp=&v=1&EN=81537&ms=,
http://www.runnersworld.co.uk/events/viewevent.asp?sp=&v=1&EN=79842&ms=,
http://www.runnersworld.co.uk/events/viewevent.asp?sp=&v=1&EN=81385&ms=,
http://www.runnersworld.co.uk/events/viewevent.asp?sp=&v=1&EN=78384&ms=,
http://www.runnersworld.co.uk/events/viewevent.asp?sp=&v=1&EN=79277&ms=,
http://www.runnersworld.co.uk/events/viewevent.asp?sp=&v=1&EN=81164&ms=,
http://www.runnersworld.co.uk/events/viewevent.asp?sp=&v=1&EN=80948&ms=,
http://www.runnersworld.co.uk/events/viewevent.asp?sp=&v=1&EN=79911&ms=,
http://www.runnersworld.co.uk/events/viewevent.asp?sp=&v=1&EN=81831&ms=,
http://www.runnersworld.co.uk/events/viewevent.asp?sp=&v=1&EN=79592&ms=,
http://www.runnersworld.co.uk/events/viewevent.asp?sp=&v=1&EN=77149&ms=,
http://www.runnersworld.co.uk/events/viewevent.asp?sp=&v=1&EN=79163&ms=,
http://www.runnersworld.co.uk/events/viewevent.asp?sp=&v=1&EN=82340&ms=,
http://www.runnersworld.co.uk/events/viewevent.asp?sp=&v=1&EN=82760&ms=,
http://www.runnersworld.co.uk/events/viewevent.asp?sp=&v=1&EN=78144&ms=,
http://www.runnersworld.co.uk/events/viewevent.asp?sp=&v=1&EN=81098&ms=,
http://www.runnersworld.co.uk/events/viewevent.asp?sp=&v=1&EN=77739&ms=,
http://www.runnersworld.co.uk/events/viewevent.asp?sp=&v=1&EN=77740&ms=,
http://www.runnersworld.co.uk/events/viewevent.asp?sp=&v=1&EN=81465&ms=,
http://www.runnersworld.co.uk/events/viewevent.asp?sp=&v=1&EN=79253&ms=,
http://www.runnersworld.co.uk/events/viewevent.asp?sp=&v=1&EN=78522&ms=,
http://www.runnersworld.co.uk/events/viewevent.asp?sp=&v=1&EN=78523&ms=,
http://www.runnersworld.co.uk/events/viewevent.asp?sp=&v=1&EN=78850&ms=,
http://www.runnersworld.co.uk/events/viewevent.asp?sp=&v=1&EN=82698&ms=,
http://www.runnersworld.co.uk/events/viewevent.asp?sp=&v=1&EN=77789&ms=,
http://www.runnersworld.co.uk/events/viewevent.asp?sp=&v=1&EN=79227&ms=,
http://www.runnersworld.co.uk/events/viewevent.asp?sp=&v=1&EN=79534&ms=,
http://www.runnersworld.co.uk/events/viewevent.asp?sp=&v=1&EN=80871&ms=,
http://www.runnersworld.co.uk/events/viewevent.asp?sp=&v=1&EN=79915&ms=,
http://www.runnersworld.co.uk/events/viewevent.asp?sp=&v=1&EN=79895&ms=,
http://www.runnersworld.co.uk/events/viewevent.asp?sp=&v=1&EN=79572&ms=,
http://www.runnersworld.co.uk/events/viewevent.asp?sp=&v=1&EN=83197&ms=,
http://www.runnersworld.co.uk/events/viewevent.asp?sp=&v=1&EN=80109&ms=,
http://www.runnersworld.co.uk/events/viewevent.asp?sp=&v=1&EN=82662&ms=,
http://www.runnersworld.co.uk/events/viewevent.asp?sp=&v=1&EN=80272&ms=,
http://www.runnersworld.co.uk/events/viewevent.asp?sp=&v=1&EN=79549&ms=,
http://www.runnersworld.co.uk/events/viewevent.asp?sp=&v=1&EN=80622&ms=,
http://www.runnersworld.co.uk/events/viewevent.asp?sp=&v=1&EN=83210&ms=,
http://www.runnersworld.co.uk/events/viewevent.asp?sp=&v=1&EN=79937&ms=,
http://www.runnersworld.co.uk/events/viewevent.asp?sp=&v=1&EN=79483&ms=,
http://www.runnersworld.co.uk/events/viewevent.asp?sp=&v=1&EN=80068&ms=,
http://www.runnersworld.co.uk/events/viewevent.asp?sp=&v=1&EN=80069&ms=,
http://www.runnersworld.co.uk/events/viewevent.asp?sp=&v=1&EN=77827&ms=,
http://www.runnersworld.co.uk/events/viewevent.asp?sp=&v=1&EN=77829&ms=,
http://www.runnersworld.co.uk/events/viewevent.asp?sp=&v=1&EN=77828&ms=,
http://www.runnersworld.co.uk/events/viewevent.asp?sp=&v=1&EN=79178&ms=,
http://www.runnersworld.co.uk/events/viewevent.asp?sp=&v=1&EN=79396&ms=,
http://www.runnersworld.co.uk/events/viewevent.asp?sp=&v=1&EN=81643&ms=,
http://www.runnersworld.co.uk/events/viewevent.asp?sp=&v=1&EN=81081&ms=,
http://www.runnersworld.co.uk/events/viewevent.asp?sp=&v=1&EN=80527&ms=,
http://www.runnersworld.co.uk/events/viewevent.asp?sp=&v=1&EN=77508&ms=,
http://www.runnersworld.co.uk/events/viewevent.asp?sp=&v=1&EN=77161&ms=,
http://www.runnersworld.co.uk/events/viewevent.asp?sp=&v=1&EN=79656&ms=,
http://www.runnersworld.co.uk/events/viewevent.asp?sp=&v=1&EN=81002&ms=,
http://www.runnersworld.co.uk/events/viewevent.asp?sp=&v=1&EN=78566&ms=,
http://www.runnersworld.co.uk/events/viewevent.asp?sp=&v=1&EN=81593&ms=,
http://www.runnersworld.co.uk/events/viewevent.asp?sp=&v=1&EN=81591&ms=,
http://www.runnersworld.co.uk/events/viewevent.asp?sp=&v=1&EN=81982&ms=,
http://www.runnersworld.co.uk/events/viewevent.asp?sp=&v=1&EN=82033&ms=,
http://www.runnersworld.co.uk/events/viewevent.asp?sp=&v=1&EN=82734&ms=,
http://www.runnersworld.co.uk/events/viewevent.asp?sp=&v=1&EN=81395&ms=,
http://www.runnersworld.co.uk/events/viewevent.asp?sp=&v=1&EN=81341&ms=,
http://www.runnersworld.co.uk/events/viewevent.asp?sp=&v=1&EN=78524&ms=,
http://www.runnersworld.co.uk/events/viewevent.asp?sp=&v=1&EN=82256&ms=,
http://www.runnersworld.co.uk/events/viewevent.asp?sp=&v=1&EN=80259&ms=,
http://www.runnersworld.co.uk/events/viewevent.asp?sp=&v=1&EN=77419&ms=,
http://www.runnersworld.co.uk/events/viewevent.asp?sp=&v=1&EN=80711&ms=,
http://www.runnersworld.co.uk/events/viewevent.asp?sp=&v=1&EN=81213&ms=,
http://www.runnersworld.co.uk/events/viewevent.asp?sp=&v=1&EN=82024&ms=,
http://www.runnersworld.co.uk/events/viewevent.asp?sp=&v=1&EN=82101&ms=,
http://www.runnersworld.co.uk/events/viewevent.asp?sp=&v=1&EN=82027&ms=,
http://www.runnersworld.co.uk/events/viewevent.asp?sp=&v=1&EN=77978&ms=,
http://www.runnersworld.co.uk/events/viewevent.asp?sp=&v=1&EN=77979&ms=,
http://www.runnersworld.co.uk/events/viewevent.asp?sp=&v=1&EN=79446&ms=,
http://www.runnersworld.co.uk/events/viewevent.asp?sp=&v=1&EN=80927&ms=,
http://www.runnersworld.co.uk/events/viewevent.asp?sp=&v=1&EN=80826&ms=,
http://www.runnersworld.co.uk/events/viewevent.asp?sp=&v=1&EN=79245&ms=,
http://www.runnersworld.co.uk/events/viewevent.asp?sp=&v=1&EN=80235&ms=,
http://www.runnersworld.co.uk/events/viewevent.asp?sp=&v=1&EN=77130&ms=,
http://www.runnersworld.co.uk/events/viewevent.asp?sp=&v=1&EN=81777&ms=,
http://www.runnersworld.co.uk/events/viewevent.asp?sp=&v=1&EN=80320&ms=,
http://www.runnersworld.co.uk/events/viewevent.asp?sp=&v=1&EN=81942&ms=,
http://www.runnersworld.co.uk/events/viewevent.asp?sp=&v=1&EN=81205&ms=,
http://www.runnersworld.co.uk/events/viewevent.asp?sp=&v=1&EN=79428&ms=,
http://www.runnersworld.co.uk/events/viewevent.asp?sp=&v=1&EN=79503&ms=,
http://www.runnersworld.co.uk/events/viewevent.asp?sp=&v=1&EN=79477&ms=,
http://www.runnersworld.co.uk/events/viewevent.asp?sp=&v=1&EN=79478&ms=,
http://www.runnersworld.co.uk/events/viewevent.asp?sp=&v=1&EN=73318&ms=,
http://www.runnersworld.co.uk/events/viewevent.asp?sp=&v=1&EN=77907&ms=,
http://www.runnersworld.co.uk/events/viewevent.asp?sp=&v=1&EN=78386&ms=,
http://www.runnersworld.co.uk/events/viewevent.asp?sp=&v=1&EN=81374&ms=,
http://www.runnersworld.co.uk/events/viewevent.asp?sp=&v=1&EN=79850&ms=,
http://www.runnersworld.co.uk/events/viewevent.asp?sp=&v=1&EN=80489&ms=,
http://www.runnersworld.co.uk/events/viewevent.asp?sp=&v=1&EN=81863&ms=,
http://www.runnersworld.co.uk/events/viewevent.asp?sp=&v=1&EN=81918&ms=,
http://www.runnersworld.co.uk/events/viewevent.asp?sp=&v=1&EN=78825&ms=,
http://www.runnersworld.co.uk/events/viewevent.asp?sp=&v=1&EN=80718&ms=,
http://www.runnersworld.co.uk/events/viewevent.asp?sp=&v=1&EN=80747&ms=,
http://www.runnersworld.co.uk/events/viewevent.asp?sp=&v=1&EN=80748&ms=,
http://www.runnersworld.co.uk/events/viewevent.asp?sp=&v=1&EN=80749&ms=,
http://www.runnersworld.co.uk/events/viewevent.asp?sp=&v=1&EN=80857&ms=,
http://www.runnersworld.co.uk/events/viewevent.asp?sp=&v=1&EN=79702&ms=,
http://www.runnersworld.co.uk/events/viewevent.asp?sp=&v=1&EN=47647&ms=,
http://www.runnersworld.co.uk/events/viewevent.asp?sp=&v=1&EN=79833&ms=,
http://www.runnersworld.co.uk/events/viewevent.asp?sp=&v=1&EN=80223&ms=,
http://www.runnersworld.co.uk/events/viewevent.asp?sp=&v=1&EN=78249&ms=,
http://www.runnersworld.co.uk/events/viewevent.asp?sp=&v=1&EN=82579&ms=,
http://www.runnersworld.co.uk/events/viewevent.asp?sp=&v=1&EN=82642&ms=,
http://www.runnersworld.co.uk/events/viewevent.asp?sp=&v=1&EN=79544&ms=,
http://www.runnersworld.co.uk/events/viewevent.asp?sp=&v=1&EN=80241&ms=,
http://www.runnersworld.co.uk/events/viewevent.asp?sp=&v=1&EN=81845&ms=,
http://www.runnersworld.co.uk/events/viewevent.asp?sp=&v=1&EN=79233&ms=,
http://www.runnersworld.co.uk/events/viewevent.asp?sp=&v=1&EN=80084&ms=,
http://www.runnersworld.co.uk/events/viewevent.asp?sp=&v=1&EN=80085&ms=,
http://www.runnersworld.co.uk/events/viewevent.asp?sp=&v=1&EN=82245&ms=,
http://www.runnersworld.co.uk/events/viewevent.asp?sp=&v=1&EN=77925&ms=,
http://www.runnersworld.co.uk/events/viewevent.asp?sp=&v=1&EN=79551&ms=,
http://www.runnersworld.co.uk/events/viewevent.asp?sp=&v=1&EN=79887&ms=,
http://www.runnersworld.co.uk/events/viewevent.asp?sp=&v=1&EN=80734&ms=,
http://www.runnersworld.co.uk/events/viewevent.asp?sp=&v=1&EN=80480&ms=,
http://www.runnersworld.co.uk/events/viewevent.asp?sp=&v=1&EN=80476&ms=,
http://www.runnersworld.co.uk/events/viewevent.asp?sp=&v=1&EN=80738&ms=,
http://www.runnersworld.co.uk/events/viewevent.asp?sp=&v=1&EN=80116&ms=,
http://www.runnersworld.co.uk/events/viewevent.asp?sp=&v=1&EN=78388&ms=,
http://www.runnersworld.co.uk/events/viewevent.asp?sp=&v=1&EN=80353&ms=,
http://www.runnersworld.co.uk/events/viewevent.asp?sp=&v=1&EN=81104&ms=,
http://www.runnersworld.co.uk/events/viewevent.asp?sp=&v=1&EN=78974&ms=,
http://www.runnersworld.co.uk/events/viewevent.asp?sp=&v=1&EN=80830&ms=,
http://www.runnersworld.co.uk/events/viewevent.asp?sp=&v=1&EN=81432&ms=,
http://www.runnersworld.co.uk/events/viewevent.asp?sp=&v=1&EN=82469&ms=,
http://www.runnersworld.co.uk/events/viewevent.asp?sp=&v=1&EN=79333&ms=,
http://www.runnersworld.co.uk/events/viewevent.asp?sp=&v=1&EN=83388&ms=,
http://www.runnersworld.co.uk/events/viewevent.asp?sp=&v=1&EN=81133&ms=,
http://www.runnersworld.co.uk/events/viewevent.asp?sp=&v=1&EN=80584&ms=,
http://www.runnersworld.co.uk/events/viewevent.asp?sp=&v=1&EN=79364&ms=,
http://www.runnersworld.co.uk/events/viewevent.asp?sp=&v=1&EN=80751&ms=,
http://www.runnersworld.co.uk/events/viewevent.asp?sp=&v=1&EN=80750&ms=,
http://www.runnersworld.co.uk/events/viewevent.asp?sp=&v=1&EN=80752&ms=,
http://www.runnersworld.co.uk/events/viewevent.asp?sp=&v=1&EN=83212&ms=,
http://www.runnersworld.co.uk/events/viewevent.asp?sp=&v=1&EN=82165&ms=,
http://www.runnersworld.co.uk/events/viewevent.asp?sp=&v=1&EN=81717&ms=,
http://www.runnersworld.co.uk/events/viewevent.asp?sp=&v=1&EN=80844&ms=,
http://www.runnersworld.co.uk/events/viewevent.asp?sp=&v=1&EN=82130&ms=,
http://www.runnersworld.co.uk/events/viewevent.asp?sp=&v=1&EN=82018&ms=,
http://www.runnersworld.co.uk/events/viewevent.asp?sp=&v=1&EN=78722&ms=,
http://www.runnersworld.co.uk/events/viewevent.asp?sp=&v=1&EN=82254&ms=,
http://www.runnersworld.co.uk/events/viewevent.asp?sp=&v=1&EN=81667&ms=,
http://www.runnersworld.co.uk/events/viewevent.asp?sp=&v=1&EN=81666&ms=,
http://www.runnersworld.co.uk/events/viewevent.asp?sp=&v=1&EN=81665&ms=,
http://www.runnersworld.co.uk/events/viewevent.asp?sp=&v=1&EN=81809&ms=,
http://www.runnersworld.co.uk/events/viewevent.asp?sp=&v=1&EN=81286&ms=,
http://www.runnersworld.co.uk/events/viewevent.asp?sp=&v=1&EN=81211&ms=,
